{
    "pipeline_name": "ner",
    "location": "tutorials/named-entity-recognition",
    "models": [
        "ner-db",
        "ner-model"
    ],
    "icon_filename": "icon.png",
    "tags": {
        "modelTypeCode": "CL",
        "toolkitTypeCode": "CP",
        "tags": [
            {
                "tag": "playground"
            },
            {
                "tag": "ready"
            },
            {
                "tag": "tutorial"
            },
            {
                "tag": "named"
            },
            {
                "tag": "entity"
            },
            {
                "tag": "recognition"
            },
            {
                "tag": "pipeline"
            }
        ]
    },
    "add_link_params": [{
	  "userId": "{self.GRAPHENE_USERID}",
	  "cid": "{pipeline.cid}",
	  "linkId": "{link_id}",
	  "sourceNodeName": "ner-db-16992235121",
	  "sourceNodeId": "ner-db-16992235121",
	  "targetNodeName": "ner-model-16992235121",
	  "targetNodeId": "ner-model-16992235121",
	  "sourceNodeRequirement": "ner_databroker+[[{\"role\":\"\",\"tag\":\"1\",\"type\":\"string\"}]]+req0",
	  "targetNodeCapabilityName": "mountVolume+[[{\"role\":\"\",\"tag\":\"1\",\"type\":\"string\"}]]+cap1"
	}],
	"modify_node_urls":[
		"dsce/dsce/solution/modifyNode?userid={GRAPHENE_USER_ID}&cid={COMP_SOLUTION_ID}&nodeid=ner-model-16992235121&nodename=ner-model-16992235121&ndata={\"fixed\":false}"
		],
    "add_link_url":"dsce/dsce/solution/addLink"
}